Lab 5
…
danger_vehicle <- person %>%
  filter(INJ_SEV==4) %>%
  group_by(STATE, MAKE) %>%
  drop_na() %>%
  summarise(danger=n()) %>%
  group_by(STATE) %>%
  filter(danger==max(danger))

danger_vehicle <- danger_vehicle %>%
  filter(!((STATE==8 & MAKE==37) | (STATE==34 & MAKE==37) | (STATE==50 & MAKE==37)))

danger_vehicle

## # A tibble: 51 x 3
## # Groups:   STATE [51]
##    STATE  MAKE danger
##    <int> <int>  <int>
##  1     1    12    138
##  2     2    12      9
##  3     4    20     88
##  4     5    20     88
##  5     6    49    351
##  6     8    12     63
##  7     9    37     28
##  8    10    37     12
##  9    11    37      5
## 10    12    12    237
## # ... with 41 more rows
…
